COVID-19 Case Study Midterm
…
3) What is the state with the highest average log_death_rate, and what is this rate?

covid_state %>% 
  arrange(-avg_log_death_rate)

## # A tibble: 49 x 2
##    State avg_log_death_rate
##    <chr>              <dbl>
##  1 NJ                 -6.47
##  2 MS                 -6.62
##  3 LA                 -6.69
##  4 GA                 -6.96
##  5 SC                 -6.98
##  6 DC                 -6.99
##  7 AZ                 -7.00
##  8 MA                 -7.06
##  9 ND                 -7.09
## 10 CT                 -7.15
## #  with 39 more rows
…
